<?xml version="1.0"?>
<robot name="rbkairos" xmlns:xacro="http://wiki.ros.org/xacro">


	<!-- ***************** -->
	<!-- Imported elements -->
	<!-- ***************** -->

	<!-- First we import all posible elements defined in the urdf.xacro files. All these elements are defined as macro:xacros -->

	<!-- Import summit XL base elements -->
	<xacro:include filename="$(find rbkairos_description_new)/urdf/bases/rbkairos_base.urdf.xacro" />


	<!-- Include UR-10 ARM -->
	<xacro:include filename="$(find ur_description_new)/urdf/ur10.urdf.xacro" />


	<!-- Flag to select the high or low quality model -->
	<xacro:property name="hq" value="true" />

	<xacro:arg name="prefix" default="robot_"/>
	<xacro:arg name="ros_planar_move_plugin" default="false"/>
  <xacro:arg name="load_kinematics_file" default="false"/> <!-- Necesarry for ur_description_new compatible with official ur drivers--> 
  
  <xacro:property name="arm_position_x" value="0"/>
  <xacro:property name="arm_position_y" value="0"/>
  <xacro:property name="arm_position_z" value="0.38212"/>
  <xacro:property name="arm_orientation_r" value="0"/>
  <xacro:property name="arm_orientation_p" value="0"/>
  <xacro:property name="arm_orientation_y" value="0"/>

  <xacro:macro name="rbkairos" params="prefix publish_bf hq load_kinematics_file">

		<!-- *************** -->
		<!-- Robots Elements -->
		<!-- *************** -->

		<!-- Here we create the robot elements using the xacro:macros imported at the beggining of this file -->

		<!-- RBKAIROS base -->
		<xacro:rbkairos_base prefix="$(arg prefix)" publish_bf="true" hq="true"/>


		<!-- UR-5 ARM -->
		<xacro:if value="$(arg load_kinematics_file)">
        <xacro:ur10_robot prefix="$(arg prefix)arm_" joint_limited="true"
          shoulder_pan_lower_limit="${-pi}" shoulder_pan_upper_limit="${pi}"
          wrist_3_lower_limit="${-pi}" wrist_3_upper_limit="${pi}"
          kinematics_file="${load_yaml('$(find rbkairos_new_control)/config/ur10_calibration.yaml')}">
        </xacro:ur10_robot>
    
        <joint name="$(arg prefix)arm_base_joint" type="fixed">
          <origin xyz="${arm_position_x} ${arm_position_y} ${arm_position_z}" rpy="${arm_orientation_r} ${arm_orientation_p} ${arm_orientation_y}"/>
          <parent link="$(arg prefix)base_link" />
          <child link="$(arg prefix)arm_base_link" />
        </joint>
		</xacro:if>

		<xacro:unless value="$(arg load_kinematics_file)">
        <xacro:ur10_robot prefix="$(arg prefix)arm_" joint_limited="true"
          shoulder_pan_lower_limit="${-pi}" shoulder_pan_upper_limit="${pi}"
          wrist_3_lower_limit="${-pi}" wrist_3_upper_limit="${pi}">
        </xacro:ur10_robot>
    
        <joint name="$(arg prefix)arm_base_joint" type="fixed">
          <origin xyz="${arm_position_x} ${arm_position_y} ${arm_position_z}" rpy="${arm_orientation_r} ${arm_orientation_p} ${arm_orientation_y}"/>
          <parent link="$(arg prefix)base_link" />
          <child link="$(arg prefix)arm_base_link" />
        </joint>
		</xacro:unless>

	</xacro:macro>

   <!-- Gazebo ros control pluggins -->
   <xacro:ros_control/>
   <xacro:if value="$(arg ros_planar_move_plugin)">
	   <xacro:omni_steering prefix="$(arg prefix)" publish_tf="false"/>
   </xacro:if>

   <xacro:rbkairos prefix="$(arg prefix)" publish_bf="true" hq="true" load_kinematics_file="$(arg load_kinematics_file)"/>




</robot>
